%YAML 1.1
%TAG !u! tag:unity3d.com,2011:
--- !u!114 &11400000
MonoBehaviour:
  m_ObjectHideFlags: 0
  m_PrefabParentObject: {fileID: 0}
  m_PrefabInternal: {fileID: 0}
  m_GameObject: {fileID: 0}
  m_Enabled: 1
  m_EditorHideFlags: 0
  m_Script: {fileID: 11500000, guid: f0784a4e1796ad643a169990e8e4ea23, type: 3}
  m_Name: BlockWater
  m_EditorClassIdentifier: 
  id: 2
  blockName: Water
  transparent: 0
  durability: 1
  blockTexture:
    front: 2
    left: 2
    back: 2
    right: 2
    top: 2
    bottom: 2
  behavior: {fileID: 0}
  material: {fileID: 2100000, guid: 0d0ab01c93bae7944a0bd8a405a12af0, type: 2}
